sending incremental file list
vhosts/
vhosts/.conf
vhosts/10100.conf
vhosts/10151.conf
vhosts/10152.conf
vhosts/10160.conf
vhosts/10190.conf
vhosts/123456.conf
vhosts/2210.conf
vhosts/2211.conf
vhosts/4402.conf
vhosts/4412.conf
vhosts/443.conf
vhosts/4501.conf
vhosts/4601.conf
vhosts/4802.conf
vhosts/4803.conf
vhosts/5005.conf
vhosts/5245.conf
vhosts/5441.conf
vhosts/5471.conf
vhosts/5475.conf
vhosts/5480.conf
vhosts/5481.conf
vhosts/5491.conf
vhosts/5492.conf
vhosts/5493.conf
vhosts/5494.conf
vhosts/5495.conf
vhosts/5496.conf
vhosts/5497.conf
vhosts/5498.conf
vhosts/5531.conf
vhosts/5532.conf
vhosts/5541.conf
vhosts/5571.conf
vhosts/5575.conf
vhosts/5580.conf
vhosts/5581.conf
vhosts/5591.conf
vhosts/5592.conf
vhosts/5593.conf
vhosts/5594.conf
vhosts/5595.conf
vhosts/5596.conf
vhosts/5597.conf
vhosts/5598.conf
vhosts/5599.conf
vhosts/5600.conf
vhosts/6245.conf
vhosts/6461.conf
vhosts/6468.conf
vhosts/6469.conf
vhosts/6499.conf
vhosts/6510.conf
vhosts/6514.conf
vhosts/6515.conf
vhosts/6516.conf
vhosts/6530.conf
vhosts/6531.conf
vhosts/6532.conf
vhosts/6533.conf
vhosts/6534.conf
vhosts/6535.conf
vhosts/6536.conf
vhosts/6537.conf
vhosts/7002.conf
vhosts/7012.conf
vhosts/7013.conf
vhosts/7015.conf
vhosts/7016.conf
vhosts/7017.conf
vhosts/7019.conf
vhosts/7020.conf
vhosts/7021.conf
vhosts/7201.conf
vhosts/7470.conf
vhosts/7471.conf
vhosts/80.conf
vhosts/8005.conf
vhosts/8081.conf
vhosts/8461.conf
vhosts/8468.conf
vhosts/8469.conf
vhosts/8499.conf

sent 93.05K bytes  received 1.62K bytes  189.33K bytes/sec
total size is 87.61K  speedup is 0.93
